Spatial Visualization
…
---

```r
district
```

```
## Simple feature collection with 26 features and 3 fields
## Geometry type: MULTIPOLYGON
## Dimension:     XY
## Bounding box:  xmin: 362203.3 ymin: 380301.9 xmax: 621918.1 ymax: 813560.9
## Projected CRS: SLD99 / Sri Lanka Grid 1999
## # A tibble: 26 × 4
##                                              geometry DISTRICT Status population
##  *                                 <MULTIPOLYGON [m]> <chr>    <chr>       <dbl>
##  1 (((392952.6 594064.2, 392985.8 593971.5, 392986.2… [UNKNOW… <NA>           NA
##  2 (((551311.8 581603.6, 551324.5 581599.7, 551334.5… AMPARA   Distr…     736000
##  3 (((501928.5 712099.6, 501970.4 712098.8, 502020 7… ANURADH… Distr…     943000
##  4 (((522825 568220.9, 522872.6 568217.7, 522926.1 5… BADULLA  Distr…     886000
##  5 (((609877 559315.9, 609857.5 559313, 609845.2 559… BATTICA… Distr…     579000
##  6 (((400911.5 497888.4, 401032.5 497869.3, 401035.2… COLOMBO  Distr…    2455000
##  7 (((425038.8 404072.5, 425030.7 404072.5, 425022 4… GALLE    Distr…    1135000
##  8 (((430775.7 534473.9, 430789.2 534441.8, 430790.2… GAMPAHA  Distr…    2423000
##  9 (((592923.3 452679, 592949.2 452679, 592989.8 452… HAMBANT… Distr…     668000
## 10 (((362968.6 763698.5, 362883.6 763686.9, 362787.9… JAFFNA   Distr…     621000
## # ℹ 16 more rows
```
…
