Visualizing Time Series Data
…
---
class: inverse, center, middle

# Univariate Time Series Visualization

---
# `srilanka_weekly_data`

```r
srilanka_weekly_data
```

```
## # A tibble: 21,934 × 6
##     year  week start.date end.date   district    cases
##  * <dbl> <dbl> <date>     <date>     <chr>       <dbl>
##  1  2006    52 2006-12-23 2006-12-29 Colombo        71
##  2  2006    52 2006-12-23 2006-12-29 Gampaha        12
##  3  2006    52 2006-12-23 2006-12-29 Kalutara       12
##  4  2006    52 2006-12-23 2006-12-29 Kandy          20
##  5  2006    52 2006-12-23 2006-12-29 Matale          4
##  6  2006    52 2006-12-23 2006-12-29 NuwaraEliya     1
##  7  2006    52 2006-12-23 2006-12-29 Galle           1
##  8  2006    52 2006-12-23 2006-12-29 Hambanthota     1
##  9  2006    52 2006-12-23 2006-12-29 Matara         11
## 10  2006    52 2006-12-23 2006-12-29 Jaffna          0
## # ℹ 21,924 more rows
```

---

# Filter Colombo data

```r
colombodf <- srilanka_weekly_data |>
  filter(district == "Colombo")
colombodf
```

```
## # A tibble: 844 × 6
##     year  week start.date end.date   district cases
##    <dbl> <dbl> <date>     <date>     <chr>    <dbl>
##  1  2006    52 2006-12-23 2006-12-29 Colombo     71
##  2  2007     1 2006-12-30 2007-01-05 Colombo     40
##  3  2007     2 2007-01-06 2007-01-12 Colombo     43
##  4  2007     3 2007-01-13 2007-01-19 Colombo     38
##  5  2007     4 2007-01-20 2007-01-26 Colombo     52
##  6  2007     5 2007-01-27 2007-02-02 Colombo     69
##  7  2007     6 2007-02-03 2007-02-09 Colombo     36
##  8  2007     7 2007-02-10 2007-02-16 Colombo     42
##  9  2007     8 2007-02-17 2007-02-23 Colombo     28
## 10  2007     9 2007-02-24 2007-03-02 Colombo     20
## # ℹ 834 more rows
```
…
# Formatting time axis

---

# Filter 2019 data for Colombo district

```r
colombo2019 <-  srilanka_weekly_data |>
  filter(district == "Colombo", year==2019)
colombo2019
```

```
## # A tibble: 52 × 6
##     year  week start.date end.date   district cases
##    <dbl> <dbl> <date>     <date>     <chr>    <dbl>
##  1  2019     1 2018-12-29 2019-01-04 Colombo    299
##  2  2019     2 2019-01-05 2019-01-11 Colombo    326
##  3  2019     3 2019-01-12 2019-01-18 Colombo    259
##  4  2019     4 2019-01-19 2019-01-25 Colombo    341
##  5  2019     5 2019-01-26 2019-02-01 Colombo    232
##  6  2019     6 2019-02-02 2019-02-08 Colombo    201
##  7  2019     7 2019-02-09 2019-02-15 Colombo    215
##  8  2019     8 2019-02-16 2019-02-22 Colombo    144
##  9  2019     9 2019-02-23 2019-03-01 Colombo    153
## 10  2019    10 2019-03-02 2019-03-08 Colombo    170
## # ℹ 42 more rows
```
…
